%!PS-Adobe-2.0 EPSF-2.0
%%BoundingBox:  0 0 567 449
%%Title: figs/loss_data1percent_allYears.eps: BPRE
%%Creator: ROOT Version 6.28/06
%%CreationDate: Tue Dec 12 10:56:28 2023
%%EndComments
%%BeginProlog
80 dict begin
/s {stroke} def /l {lineto} def /m {moveto} def /t {translate} def
/r {rotate} def /rl {roll}  def /R {repeat} def
/d {rlineto} def /rm {rmoveto} def /gr {grestore} def /f {eofill} def
/c {setrgbcolor} def /black {0 setgray} def /sd {setdash} def
/cl {closepath} def /sf {scalefont setfont} def /lw {setlinewidth} def
/box {m dup 0 exch d exch 0 d 0 exch neg d cl} def
/NC{systemdict begin initclip end}def/C{NC box clip newpath}def
/bl {box s} def /bf {gsave box gsave f grestore 1 lw [] 0 sd s grestore} def /Y { 0 exch d} def /X { 0 d} def 
/K {{pop pop 0 moveto} exch kshow} bind def
/ita {/ang 15 def gsave [1 0 ang dup sin exch cos div 1 0 0] concat} def 
/mp {newpath /y exch def /x exch def} def
/side {[w .77 mul w .23 mul] .385 w mul sd w 0 l currentpoint t -144 r} def
/mr {mp x y w2 0 360 arc} def /m24 {mr s} def /m20 {mr f} def
/mb {mp x y w2 add m w2 neg 0 d 0 w neg d w 0 d 0 w d cl} def
/mt {mp x y w2 add m w2 neg w neg d w 0 d cl} def
/w4 {w 4 div} def
/w6 {w 6 div} def
/w8 {w 8 div} def
/m21 {mb f} def /m25 {mb s} def /m22 {mt f} def /m26{mt s} def
/m23 {mp x y w2 sub m w2 w d w neg 0 d cl f} def
/m27 {mp x y w2 add m w3 neg w2 neg d w3 w2 neg d w3 w2 d cl s} def
/m28 {mp x w2 sub y w2 sub w3 add m w3 0 d  0 w3 neg d w3 0 d 0 w3 d w3 0 d  0 w3 d w3 neg 0 d 0 w3 d w3 neg 0 d 0 w3 neg d w3 neg 0 d cl s } def
/m29 {mp gsave x w2 sub y w2 add w3 sub m currentpoint t 4 {side} repeat cl fill gr} def
/m30 {mp gsave x w2 sub y w2 add w3 sub m currentpoint t 4 {side} repeat cl s gr} def
/m31 {mp x y w2 sub m 0 w d x w2 sub y m w 0 d x w2 .707 mul sub y w2 .707 mul add m w 1.44 div w 1.44 div neg d x w2 .707 mul sub y w2 .707 mul sub m w 1.44 div w 1.44 div d s} def
/m32 {mp x y w2 sub m w2 w d w neg 0 d cl s} def
/m33 {mp x y w2 add m w3 neg w2 neg d w3 w2 neg d w3 w2 d cl f} def
/m34 {mp x w2 sub y w2 sub w3 add m w3 0 d  0 w3 neg d w3 0 d 0 w3 d w3 0 d  0 w3 d w3 neg 0 d 0 w3 d w3 neg 0 d 0 w3 neg d w3 neg 0 d cl f } def
/m35 {mp x y w2 add m w2 neg w2 neg d w2 w2 neg d w2 w2 d w2 neg w2 d x y w2 sub m 0 w d x w2 sub y m w 0 d s} def
/m36 {mb x w2 sub y w2 add m w w neg d x w2 sub y w2 sub m w w d s} def
/m37 {mp x y m w4 neg w2 d w4 neg w2 neg d w2 0 d  w4 neg w2 neg d w2 0 d w4 neg w2 d w2 0 d w4 neg w2 d w4 neg w2 neg d cl s} def
/m38 {mp x w4 sub y w2 add m w4 neg w4 neg d 0 w2 neg d w4 w4 neg d w2 0 d w4 w4 d 0 w2 d w4 neg w4 d w2 neg 0 d x y w2 sub m 0 w d x w2 sub y m w 0 d cl s} def
/m39 {mp x y m w4 neg w2 d w4 neg w2 neg d w2 0 d  w4 neg w2 neg d w2 0 d w4 neg w2 d w2 0 d w4 neg w2 d w4 neg w2 neg d cl f} def
/m40 {mp x y m w4 w2 d w4 w4 neg d w2 neg w4 neg d w2 w4 neg d w4 neg w4 neg d w4 neg w2 d w4 neg w2 neg d w4 neg w4 d w2 w4 d w2 neg w4 d w4 w4 d w4 w2 neg d cl s} def
/m41 {mp x y m w4 w2 d w4 w4 neg d w2 neg w4 neg d w2 w4 neg d w4 neg w4 neg d w4 neg w2 d w4 neg w2 neg d w4 neg w4 d w2 w4 d w2 neg w4 d w4 w4 d w4 w2 neg d cl f} def
/m42 {mp x y w2 add m w8 neg w2 -3 4 div mul d w2 -3 4 div mul w8 neg d w2 3 4 div mul w8 neg d w8 w2 -3 4 div mul d w8 w2 3 4 div mul d w2 3 4 div mul w8 d w2 -3 4 div mul w8 d w8 neg w2 3 4 div mul d cl s} def
/m43 {mp x y w2 add m w8 neg w2 -3 4 div mul d w2 -3 4 div mul w8 neg d w2 3 4 div mul w8 neg d w8 w2 -3 4 div mul d w8 w2 3 4 div mul d w2 3 4 div mul w8 d w2 -3 4 div mul w8 d w8 neg w2 3 4 div mul d cl f} def
/m44 {mp x y m w6 neg w2 d w2 2 3 div mul 0 d w6 neg w2 neg d w2 w6 d 0 w2 -2 3 div mul d w2 neg w6 d w6 w2 neg d w2 -2 3 div mul 0 d w6 w2 d w2 neg w6 neg d 0 w2 2 3 div mul d w2 w6 neg d cl s} def
/m45 {mp x y m w6 neg w2 d w2 2 3 div mul 0 d w6 neg w2 neg d w2 w6 d 0 w2 -2 3 div mul d w2 neg w6 d w6 w2 neg d w2 -2 3 div mul 0 d w6 w2 d w2 neg w6 neg d 0 w2 2 3 div mul d w2 w6 neg d cl f} def
/m46 {mp x y w4 add m w4 neg w4 d w4 neg w4 neg d  w4 w4 neg d w4 neg w4 neg d w4 w4 neg d w4 w4 d w4 w4 neg d w4 w4 d w4 neg w4 d w4 w4 d w4 neg w4 d w4 neg w4 neg d cl s} def
/m47 {mp x y w4 add m w4 neg w4 d w4 neg w4 neg d w4 w4 neg d w4 neg w4 neg d  w4 w4 neg d w4 w4 d w4 w4 neg d w4 w4 d w4 neg w4 d w4 w4 d w4 neg w4 d w4 neg w4 neg d cl f} def
/m48 {mp x y w4 add m w4 neg w4 d w4 neg w4 neg d w4 w4 neg d  w4 neg w4 neg d w4 w4 neg d w4 w4 d w4 w4 neg d w4 w4 d w4 neg w4 d w4 w4 d w4 neg w4 d w4 neg w4 neg d  w4 w4 neg d w4 neg w4 neg d w4 neg w4 d w4 w4 d cl f} def
/m49 {mp x w2 sub w3 add y w2 sub w3 add m  0 w3 neg d w3 0 d 0 w3 d w3 0 d 0 w3 d w3 neg 0 d 0 w3 d w3 neg 0 d 0 w3 neg d w3 neg 0 d 0 w3 neg d w3 0 d 0 w3 d w3 0 d 0 w3 neg d w3 neg 0 d cl f } def
/m2 {mp x y w2 sub m 0 w d x w2 sub y m w 0 d s} def
/m5 {mp x w2 .707 mul sub y w2 .707 mul sub m w 1.44 div w 1.44 div d x w2 .707 mul sub y w2 .707 mul add m w 1.44 div w 1.44 div neg d s} def
/reEncode {exch findfont dup length dict begin {1 index /FID eq  {pop pop} {def} ifelse } forall /Encoding exch def currentdict end dup /FontName get exch definefont pop } def [/Times-Bold /Times-Italic /Times-BoldItalic /Helvetica /Helvetica-Oblique
 /Helvetica-Bold /Helvetica-BoldOblique /Courier /Courier-Oblique /Courier-Bold /Courier-BoldOblique /Times-Roman /AvantGarde-Book /AvantGarde-BookOblique /AvantGarde-Demi /AvantGarde-DemiOblique /Bookman-Demi /Bookman-DemiItalic /Bookman-Light
 /Bookman-LightItalic /Helvetica-Narrow /Helvetica-Narrow-Bold /Helvetica-Narrow-BoldOblique /Helvetica-Narrow-Oblique /NewCenturySchlbk-Roman /NewCenturySchlbk-Bold /NewCenturySchlbk-BoldItalic /NewCenturySchlbk-Italic /Palatino-Bold
 /Palatino-BoldItalic /Palatino-Italic /Palatino-Roman ] {ISOLatin1Encoding reEncode } forall
%%EndProlog
%%BeginSetup
%%EndSetup
newpath  gsave  .25 .25 scale  gsave  0 0 t black[  ] 0 sd 3 lw 1 1 1 c 2268 1257 0 539 bf black 1 1 1 c 2268 449 0 90 bf black 1 1 1 c 2268 1257 0 539 bf black 1 1 1 c 2268 1796 0 0 bf black 1 1 1 c 2268 1257 0 539 bf black 1 1 1 c 1883 1044 317 727
 bf black 1883 1044 317 727 bl 317 727 m 1883 X s 422 759 m -32 Y s 464 743 m -16 Y s 506 743 m -16 Y s 548 743 m -16 Y s 589 743 m -16 Y s 631 759 m -32 Y s 673 743 m -16 Y s 715 743 m -16 Y s 757 743 m -16 Y s 798 743 m -16 Y s 840 759 m -32 Y s
 882 743 m -16 Y s 924 743 m -16 Y s 966 743 m -16 Y s 1008 743 m -16 Y s 1049 759 m -32 Y s 1091 743 m -16 Y s 1133 743 m -16 Y s 1175 743 m -16 Y s 1217 743 m -16 Y s 1259 759 m -32 Y s 1300 743 m -16 Y s 1342 743 m -16 Y s 1384 743 m -16 Y s 1426
 743 m -16 Y s 1468 759 m -32 Y s 1510 743 m -16 Y s 1551 743 m -16 Y s 1593 743 m -16 Y s 1635 743 m -16 Y s 1677 759 m -32 Y s 1719 743 m -16 Y s 1761 743 m -16 Y s 1802 743 m -16 Y s 1844 743 m -16 Y s 1886 759 m -32 Y s 1928 743 m -16 Y s 1970
 743 m -16 Y s 2011 743 m -16 Y s 2053 743 m -16 Y s 2095 759 m -32 Y s 422 759 m -32 Y s 380 743 m -16 Y s 338 743 m -16 Y s 2095 759 m -32 Y s 2137 743 m -16 Y s 2179 743 m -16 Y s
 gsave  2268 1257 0 539 C 407.124 673.466 t 0 r /Helvetica findfont 57.1426 sf 0 0 m (11) show NC gr 
 gsave  2268 1257 0 539 C 372.88 673.466 t 0 r /Symbol findfont 57.1426 sf 0 0 m (-) show NC gr 
 gsave  2268 1257 0 539 C 612.588 673.466 t 0 r /Helvetica findfont 57.1426 sf 0 0 m (10) show NC gr 
 gsave  2268 1257 0 539 C 578.344 673.466 t 0 r /Symbol findfont 57.1426 sf 0 0 m (-) show NC gr 
 gsave  2268 1257 0 539 C 837.077 673.466 t 0 r /Helvetica findfont 57.1426 sf 0 0 m (9) show NC gr 
 gsave  2268 1257 0 539 C 802.833 673.466 t 0 r /Symbol findfont 57.1426 sf 0 0 m (-) show NC gr 
 gsave  2268 1257 0 539 C 1046.35 673.466 t 0 r /Helvetica findfont 57.1426 sf 0 0 m (8) show NC gr 
 gsave  2268 1257 0 539 C 1012.1 673.466 t 0 r /Symbol findfont 57.1426 sf 0 0 m (-) show NC gr 
 gsave  2268 1257 0 539 C 1255.61 673.466 t 0 r /Helvetica findfont 57.1426 sf 0 0 m (7) show NC gr 
 gsave  2268 1257 0 539 C 1221.37 673.466 t 0 r /Symbol findfont 57.1426 sf 0 0 m (-) show NC gr 
 gsave  2268 1257 0 539 C 1464.88 673.466 t 0 r /Helvetica findfont 57.1426 sf 0 0 m (6) show NC gr 
 gsave  2268 1257 0 539 C 1430.64 673.466 t 0 r /Symbol findfont 57.1426 sf 0 0 m (-) show NC gr 
 gsave  2268 1257 0 539 C 1674.15 673.466 t 0 r /Helvetica findfont 57.1426 sf 0 0 m (5) show NC gr 
 gsave  2268 1257 0 539 C 1639.91 673.466 t 0 r /Symbol findfont 57.1426 sf 0 0 m (-) show NC gr 
 gsave  2268 1257 0 539 C 1883.42 673.466 t 0 r /Helvetica findfont 57.1426 sf 0 0 m (4) show NC gr 
 gsave  2268 1257 0 539 C 1849.18 673.466 t 0 r /Symbol findfont 57.1426 sf 0 0 m (-) show NC gr 
 gsave  2268 1257 0 539 C 2092.69 673.466 t 0 r /Helvetica findfont 57.1426 sf 0 0 m (3) show NC gr 
 gsave  2268 1257 0 539 C 2058.45 673.466 t 0 r /Symbol findfont 57.1426 sf 0 0 m (-) show NC gr  317 1771 m 1883 X s 422 1739 m 32 Y s 464 1755 m 16 Y s 506 1755 m 16 Y s 548 1755 m 16 Y s 589 1755 m 16 Y s 631 1739 m 32 Y s 673 1755 m 16 Y s 715
 1755 m 16 Y s 757 1755 m 16 Y s 798 1755 m 16 Y s 840 1739 m 32 Y s 882 1755 m 16 Y s 924 1755 m 16 Y s 966 1755 m 16 Y s 1008 1755 m 16 Y s 1049 1739 m 32 Y s 1091 1755 m 16 Y s 1133 1755 m 16 Y s 1175 1755 m 16 Y s 1217 1755 m 16 Y s 1259 1739 m
 32 Y s 1300 1755 m 16 Y s 1342 1755 m 16 Y s 1384 1755 m 16 Y s 1426 1755 m 16 Y s 1468 1739 m 32 Y s 1510 1755 m 16 Y s 1551 1755 m 16 Y s 1593 1755 m 16 Y s 1635 1755 m 16 Y s 1677 1739 m 32 Y s 1719 1755 m 16 Y s 1761 1755 m 16 Y s 1802 1755 m 16
 Y s 1844 1755 m 16 Y s 1886 1739 m 32 Y s 1928 1755 m 16 Y s 1970 1755 m 16 Y s 2011 1755 m 16 Y s 2053 1755 m 16 Y s 2095 1739 m 32 Y s 422 1739 m 32 Y s 380 1755 m 16 Y s 338 1755 m 16 Y s 2095 1739 m 32 Y s 2137 1755 m 16 Y s 2179 1755 m 16 Y s
 317 727 m 1044 Y s 346 727 m -29 X s 346 742 m -29 X s 346 752 m -29 X s 346 759 m -29 X s 346 766 m -29 X s 346 771 m -29 X s 346 776 m -29 X s 346 780 m -29 X s 374 784 m -57 X s
 gsave  2268 1257 0 539 C 273.952 780.003 t 0 r /Helvetica findfont 38.0951 sf 0 0 m (2) show NC gr 
 gsave  2268 1257 0 539 C 251.123 780.003 t 0 r /Symbol findfont 38.0951 sf 0 0 m (-) show NC gr 
 gsave  2268 1257 0 539 C 190.245 757.174 t 0 r /Helvetica findfont 57.1426 sf 0 0 m (10) show NC gr  346 808 m -29 X s 346 822 m -29 X s 346 832 m -29 X s 346 840 m -29 X s 346 846 m -29 X s 346 851 m -29 X s 346 856 m -29 X s 346 860 m -29 X s 374
 864 m -57 X s
 gsave  2268 1257 0 539 C 281.562 863.711 t 0 r /Helvetica findfont 38.0951 sf 0 0 m (1) show NC gr 
 gsave  2268 1257 0 539 C 258.733 863.711 t 0 r /Symbol findfont 38.0951 sf 0 0 m (-) show NC gr 
 gsave  2268 1257 0 539 C 197.854 840.881 t 0 r /Helvetica findfont 57.1426 sf 0 0 m (10) show NC gr  346 888 m -29 X s 346 902 m -29 X s 346 912 m -29 X s 346 920 m -29 X s 346 927 m -29 X s 346 932 m -29 X s 346 937 m -29 X s 346 941 m -29 X s 374
 944 m -57 X s
 gsave  2268 1257 0 539 C 273.952 924.589 t 0 r /Helvetica findfont 57.1426 sf 0 0 m (1) show NC gr  346 969 m -29 X s 346 983 m -29 X s 346 993 m -29 X s 346 1001 m -29 X s 346 1007 m -29 X s 346 1012 m -29 X s 346 1017 m -29 X s 346 1021 m -29 X s
 374 1025 m -57 X s
 gsave  2268 1257 0 539 C 235.903 1004.49 t 0 r /Helvetica findfont 57.1426 sf 0 0 m (10) show NC gr  346 1049 m -29 X s 346 1063 m -29 X s 346 1073 m -29 X s 346 1081 m -29 X s 346 1087 m -29 X s 346 1093 m -29 X s 346 1097 m -29 X s 346 1101 m -29
 X s 374 1105 m -57 X s
 gsave  2268 1257 0 539 C 273.952 1103.42 t 0 r /Helvetica findfont 38.0951 sf 0 0 m (2) show NC gr 
 gsave  2268 1257 0 539 C 213.074 1080.59 t 0 r /Helvetica findfont 57.1426 sf 0 0 m (10) show NC gr  346 1129 m -29 X s 346 1144 m -29 X s 346 1154 m -29 X s 346 1161 m -29 X s 346 1168 m -29 X s 346 1173 m -29 X s 346 1178 m -29 X s 346 1182 m -29
 X s 374 1186 m -57 X s
 gsave  2268 1257 0 539 C 273.952 1187.13 t 0 r /Helvetica findfont 38.0951 sf 0 0 m (3) show NC gr 
 gsave  2268 1257 0 539 C 213.074 1160.49 t 0 r /Helvetica findfont 57.1426 sf 0 0 m (10) show NC gr  346 1210 m -29 X s 346 1224 m -29 X s 346 1234 m -29 X s 346 1242 m -29 X s 346 1248 m -29 X s 346 1253 m -29 X s 346 1258 m -29 X s 346 1262 m -29
 X s 374 1266 m -57 X s
 gsave  2268 1257 0 539 C 273.952 1263.22 t 0 r /Helvetica findfont 38.0951 sf 0 0 m (4) show NC gr 
 gsave  2268 1257 0 539 C 213.074 1240.4 t 0 r /Helvetica findfont 57.1426 sf 0 0 m (10) show NC gr  346 1290 m -29 X s 346 1304 m -29 X s 346 1314 m -29 X s 346 1322 m -29 X s 346 1329 m -29 X s 346 1334 m -29 X s 346 1339 m -29 X s 346 1343 m -29 X
 s 374 1346 m -57 X s
 gsave  2268 1257 0 539 C 273.952 1346.93 t 0 r /Helvetica findfont 38.0951 sf 0 0 m (5) show NC gr 
 gsave  2268 1257 0 539 C 213.074 1320.3 t 0 r /Helvetica findfont 57.1426 sf 0 0 m (10) show NC gr  346 1371 m -29 X s 346 1385 m -29 X s 346 1395 m -29 X s 346 1403 m -29 X s 346 1409 m -29 X s 346 1414 m -29 X s 346 1419 m -29 X s 346 1423 m -29 X
 s 374 1427 m -57 X s
 gsave  2268 1257 0 539 C 273.952 1426.84 t 0 r /Helvetica findfont 38.0951 sf 0 0 m (6) show NC gr 
 gsave  2268 1257 0 539 C 213.074 1400.2 t 0 r /Helvetica findfont 57.1426 sf 0 0 m (10) show NC gr  346 1451 m -29 X s 346 1465 m -29 X s 346 1475 m -29 X s 346 1483 m -29 X s 346 1489 m -29 X s 346 1495 m -29 X s 346 1499 m -29 X s 346 1503 m -29 X
 s 374 1507 m -57 X s
 gsave  2268 1257 0 539 C 273.952 1506.74 t 0 r /Helvetica findfont 38.0951 sf 0 0 m (7) show NC gr 
 gsave  2268 1257 0 539 C 213.074 1483.91 t 0 r /Helvetica findfont 57.1426 sf 0 0 m (10) show NC gr  346 1531 m -29 X s 346 1546 m -29 X s 346 1556 m -29 X s 346 1563 m -29 X s 346 1570 m -29 X s 346 1575 m -29 X s 346 1580 m -29 X s 346 1584 m -29
 X s 374 1588 m -57 X s
 gsave  2268 1257 0 539 C 273.952 1590.45 t 0 r /Helvetica findfont 38.0951 sf 0 0 m (8) show NC gr 
 gsave  2268 1257 0 539 C 213.074 1563.81 t 0 r /Helvetica findfont 57.1426 sf 0 0 m (10) show NC gr  346 1612 m -29 X s 346 1626 m -29 X s 346 1636 m -29 X s 346 1644 m -29 X s 346 1650 m -29 X s 346 1655 m -29 X s 346 1660 m -29 X s 346 1664 m -29
 X s 374 1668 m -57 X s
 gsave  2268 1257 0 539 C 273.952 1670.35 t 0 r /Helvetica findfont 38.0951 sf 0 0 m (9) show NC gr 
 gsave  2268 1257 0 539 C 213.074 1643.71 t 0 r /Helvetica findfont 57.1426 sf 0 0 m (10) show NC gr  346 1692 m -29 X s 346 1706 m -29 X s 346 1716 m -29 X s 346 1724 m -29 X s 346 1731 m -29 X s 346 1736 m -29 X s 346 1741 m -29 X s 346 1745 m -29
 X s 374 1748 m -57 X s
 gsave  2268 1257 0 539 C 254.928 1750.25 t 0 r /Helvetica findfont 38.0951 sf 0 0 m (10) show NC gr 
 gsave  2268 1257 0 539 C 194.05 1723.62 t 0 r /Helvetica findfont 57.1426 sf 0 0 m (10) show NC gr  2200 727 m 1044 Y s 2171 727 m 29 X s 2171 742 m 29 X s 2171 752 m 29 X s 2171 759 m 29 X s 2171 766 m 29 X s 2171 771 m 29 X s 2171 776 m 29 X s
 2171 780 m 29 X s 2143 784 m 57 X s 2171 808 m 29 X s 2171 822 m 29 X s 2171 832 m 29 X s 2171 840 m 29 X s 2171 846 m 29 X s 2171 851 m 29 X s 2171 856 m 29 X s 2171 860 m 29 X s 2143 864 m 57 X s 2171 888 m 29 X s 2171 902 m 29 X s 2171 912 m 29 X
 s 2171 920 m 29 X s 2171 927 m 29 X s 2171 932 m 29 X s 2171 937 m 29 X s 2171 941 m 29 X s 2143 944 m 57 X s 2171 969 m 29 X s 2171 983 m 29 X s 2171 993 m 29 X s 2171 1001 m 29 X s 2171 1007 m 29 X s 2171 1012 m 29 X s 2171 1017 m 29 X s 2171 1021
 m 29 X s 2143 1025 m 57 X s 2171 1049 m 29 X s 2171 1063 m 29 X s 2171 1073 m 29 X s 2171 1081 m 29 X s 2171 1087 m 29 X s 2171 1093 m 29 X s 2171 1097 m 29 X s 2171 1101 m 29 X s 2143 1105 m 57 X s 2171 1129 m 29 X s 2171 1144 m 29 X s 2171 1154 m
 29 X s 2171 1161 m 29 X s 2171 1168 m 29 X s 2171 1173 m 29 X s 2171 1178 m 29 X s 2171 1182 m 29 X s 2143 1186 m 57 X s 2171 1210 m 29 X s 2171 1224 m 29 X s 2171 1234 m 29 X s 2171 1242 m 29 X s 2171 1248 m 29 X s 2171 1253 m 29 X s 2171 1258 m 29
 X s 2171 1262 m 29 X s 2143 1266 m 57 X s 2171 1290 m 29 X s 2171 1304 m 29 X s 2171 1314 m 29 X s 2171 1322 m 29 X s 2171 1329 m 29 X s 2171 1334 m 29 X s 2171 1339 m 29 X s 2171 1343 m 29 X s 2143 1346 m 57 X s 2171 1371 m 29 X s 2171 1385 m 29 X
 s 2171 1395 m 29 X s 2171 1403 m 29 X s 2171 1409 m 29 X s 2171 1414 m 29 X s 2171 1419 m 29 X s 2171 1423 m 29 X s 2143 1427 m 57 X s 2171 1451 m 29 X s 2171 1465 m 29 X s 2171 1475 m 29 X s 2171 1483 m 29 X s 2171 1489 m 29 X s 2171 1495 m 29 X s
 2171 1499 m 29 X s 2171 1503 m 29 X s 2143 1507 m 57 X s 2171 1531 m 29 X s 2171 1546 m 29 X s 2171 1556 m 29 X s 2171 1563 m 29 X s 2171 1570 m 29 X s 2171 1575 m 29 X s 2171 1580 m 29 X s 2171 1584 m 29 X s 2143 1588 m 57 X s 2171 1612 m 29 X s
 2171 1626 m 29 X s 2171 1636 m 29 X s 2171 1644 m 29 X s 2171 1650 m 29 X s 2171 1655 m 29 X s 2171 1660 m 29 X s 2171 1664 m 29 X s 2143 1668 m 57 X s 2171 1692 m 29 X s 2171 1706 m 29 X s 2171 1716 m 29 X s 2171 1724 m 29 X s 2171 1731 m 29 X s