[
  {	
    "dsid": "301495", 
    "k_factor": 1.0, 
    "generator_filter_efficiency": 1.0, 
    "cross_section": 3.3696E-05
  }, 
  {	
    "dsid": "301500", 
    "k_factor": 1.0, 
    "generator_filter_efficiency": 1.0, 
    "cross_section": 3.4527E-06
  }, 
  {	
    "dsid": "301503", 
    "k_factor": 1.0, 
    "generator_filter_efficiency": 1.0, 
    "cross_section": 5.5923E-07
  }, 
  {
    "dsid": "301507", 
    "k_factor": 1.0, 
    "generator_filter_efficiency": 1.0, 
    "cross_section": 2.7744E-08
  }, 
  {
    "dsid": "450259", 
    "k_factor": 1.0, 
    "generator_filter_efficiency": 1.0, 
    "cross_section": 2.3594E-03
  }, 
  {
    "dsid": "450264", 
    "k_factor": 1.0, 
    "generator_filter_efficiency": 1.0, 
    "cross_section": 1.2195E-04
  }, 
  {
    "dsid": "450267", 
    "k_factor": 1.0, 
    "generator_filter_efficiency": 1.0, 
    "cross_section": 1.1630E-05
  }, 
  {
    "dsid": "450269", 
    "k_factor": 1.0,
    "generator_filter_efficiency": 1.0,
    "cross_section": 2.5864E-07
  }, 
  {
    "dsid": "450270",
    "k_factor": 1.0,
    "generator_filter_efficiency": 1.0,
    "cross_section": 9.8902E-09
  }, 
  {
    "dsid": "450271", 
    "k_factor": 1.0,
    "generator_filter_efficiency": 1.0, 
    "cross_section": 4.5338E-10
  }, 
  {
    "dsid": "451903", 
    "k_factor": 1.0,
    "generator_filter_efficiency": 1.0,
    "cross_section": 2.0180E-09
  }, 
  {
    "dsid": "451905",
    "k_factor": 1.0,
    "generator_filter_efficiency": 1.0,
    "cross_section": 1.7571E-10
  }, 
  {
    "dsid": "451907", 
    "k_factor": 1.0,
    "generator_filter_efficiency": 1.0,
    "cross_section": 1.8821E-11
  }, 
  {
    "dsid": "800285", 
    "k_factor": 1.0,
    "generator_filter_efficiency": 6.0410E-05,
    "cross_section": 2.4332E+06
  }, 
  {
    "dsid": "800286", 
    "k_factor": 1.0,
    "generator_filter_efficiency": 2.8276E-04,
    "cross_section": 2.6454E+04
  }, 
  {
    "dsid": "800287", 
    "k_factor": 1.0,
    "generator_filter_efficiency": 5.2864E-04,
    "cross_section": 2.5463E+02
  }, 
  {
    "dsid": "364700", 
    "k_factor": 1.0,
    "generator_filter_efficiency": 9.7533E-01,
    "cross_section": 7.8050E+07
  }, 
  {
    "dsid": "364701", 
    "k_factor": 1.0,
    "generator_filter_efficiency": 2.4425E-02,
    "cross_section": 7.8050E+07
  }, 
  {
    "dsid": "364702", 
    "k_factor": 1.0,
    "generator_filter_efficiency": 9.8631E-03,
    "cross_section": 2.4330E+06
  }, 
  {
    "dsid": "364703", 
    "k_factor": 1.0,
    "generator_filter_efficiency": 1.165838E-02,
    "cross_section": 2.6450E+04
  },
  {
    "dsid": "364704", 
    "k_factor": 1.0,
    "generator_filter_efficiency": 1.336553E-02,
    "cross_section": 2.5460E+02
  }, 
  {
    "dsid": "364705", 
    "k_factor": 1.0,
    "generator_filter_efficiency": 1.452648E-02,
    "cross_section": 4.5531E+00
  }, 
  {
    "dsid": "364706", 
    "k_factor": 1.0,
    "generator_filter_efficiency": 9.4734E-03,
    "cross_section": 2.5754E-01
  },
  {
    "dsid": "364707", 
    "k_factor": 1.0,
    "generator_filter_efficiency": 1.1097E-02,
    "cross_section": 1.6215E-02
  },
  {
    "dsid": "364708", 
    "k_factor": 1.0,
    "generator_filter_efficiency": 1.0156E-02,
    "cross_section": 6.2506E-04
  },
  {
    "dsid": "364709", 
    "k_factor": 1.0,
    "generator_filter_efficiency": 1.2056E-02,
    "cross_section": 1.9639E-05
  },
  {
    "dsid": "364710", 
    "k_factor": 1.0,
    "generator_filter_efficiency": 5.8933E-03,
    "cross_section": 1.1962E-06
  },
  {
    "dsid": "364711", 
    "k_factor": 1.0,
    "generator_filter_efficiency": 2.6730E-03,
    "cross_section": 4.2263E-08
  },
  {
    "dsid": "364712", 
    "k_factor": 1.0,
    "generator_filter_efficiency": 4.2889E-04,
    "cross_section": 1.0367E-09
  },
  {
    "dsid": "410471", 
    "k_factor": 1.13974074379,
    "generator_filter_efficiency": 4.562069E-01,
    "cross_section": 7.2977E-01
  },
  {
    "dsid": "801577", 
    "k_factor": 1.0,
    "generator_filter_efficiency": 1.0,
    "cross_section": 1.0E-06
  },
  {
    "dsid": "801578", 
    "k_factor": 1.0,
    "generator_filter_efficiency": 1.0,
    "cross_section": 1.0E-06
  },
  {
    "dsid": "801579", 
    "k_factor": 1.0,
    "generator_filter_efficiency": 1.0,
    "cross_section": 1.0E-06
  },
  {
    "dsid": "801580", 
    "k_factor": 1.0,
    "generator_filter_efficiency": 1.0,
    "cross_section": 1.0E-06
  },
  {
    "dsid": "801581", 
    "k_factor": 1.0,
    "generator_filter_efficiency": 1.0,
    "cross_section": 1.0E-06
  },
  {
    "dsid": "801582", 
    "k_factor": 1.0,
    "generator_filter_efficiency": 1.0,
    "cross_section": 1.0E-06
  },
  {
    "dsid": "801583", 
    "k_factor": 1.0,
    "generator_filter_efficiency": 1.0,
    "cross_section": 1.0E-06
  },
  {
    "dsid": "801584", 
    "k_factor": 1.0,
    "generator_filter_efficiency": 1.0,
    "cross_section": 1.0E-06
  },
  {
    "dsid": "801585", 
    "k_factor": 1.0,
    "generator_filter_efficiency": 1.0,
    "cross_section": 1.0E-06
  },
  {
    "dsid": "801586", 
    "k_factor": 1.0,
    "generator_filter_efficiency": 1.0,
    "cross_section": 1.0E-06
  },
  {
    "dsid": "801587", 
    "k_factor": 1.0,
    "generator_filter_efficiency": 1.0,
    "cross_section": 1.0E-06
  },
  {
    "dsid": "801588", 
    "k_factor": 1.0,
    "generator_filter_efficiency": 1.0,
    "cross_section": 1.0E-06
  },
  {
    "dsid": "801589", 
    "k_factor": 1.0,
    "generator_filter_efficiency": 1.0,
    "cross_section": 1.0E-06
  },
  {
    "dsid": "801590", 
    "k_factor": 1.0,
    "generator_filter_efficiency": 1.0,
    "cross_section": 1.0E-06
  },
  {
    "dsid": "801591", 
    "k_factor": 1.0,
    "generator_filter_efficiency": 1.0,
    "cross_section": 1.0E-06
  },
  {
    "dsid": "801592", 
    "k_factor": 1.0,
    "generator_filter_efficiency": 1.0,
    "cross_section": 1.0E-06
  },
  {
    "dsid": "801593", 
    "k_factor": 1.0,
    "generator_filter_efficiency": 1.0,
    "cross_section": 1.0E-06
  },
  {
    "dsid": "801594", 
    "k_factor": 1.0,
    "generator_filter_efficiency": 1.0,
    "cross_section": 1.0E-06
  },
  {
    "dsid": "801595", 
    "k_factor": 1.0,
    "generator_filter_efficiency": 1.0,
    "cross_section": 1.0E-06
  },
  {
    "dsid": "801596", 
    "k_factor": 1.0,
    "generator_filter_efficiency": 1.0,
    "cross_section": 1.0E-06
  },
  {
    "dsid": "801597", 
    "k_factor": 1.0,
    "generator_filter_efficiency": 1.0,
    "cross_section": 1.0E-06
  },
  {
    "dsid": "801598", 
    "k_factor": 1.0,
    "generator_filter_efficiency": 1.0,
    "cross_section": 1.0E-06
  },
  {
    "dsid": "801599", 
    "k_factor": 1.0,
    "generator_filter_efficiency": 1.0,
    "cross_section": 1.0E-06
  },
  {
    "dsid": "801600", 
    "k_factor": 1.0,
    "generator_filter_efficiency": 1.0,
    "cross_section": 1.0E-06
  },
  {
    "dsid": "801601", 
    "k_factor": 1.0,
    "generator_filter_efficiency": 1.0,
    "cross_section": 1.0E-06
  },
  {
    "dsid": "801602", 
    "k_factor": 1.0,
    "generator_filter_efficiency": 1.0,
    "cross_section": 1.0E-06
  },
  {
    "dsid": "801603", 
    "k_factor": 1.0,
    "generator_filter_efficiency": 1.0,
    "cross_section": 1.0E-06
  },
  {
    "dsid": "801604", 
    "k_factor": 1.0,
    "generator_filter_efficiency": 1.0,
    "cross_section": 1.0E-06
  },
  {
    "dsid": "801605", 
    "k_factor": 1.0,
    "generator_filter_efficiency": 1.0,
    "cross_section": 1.0E-06
  },
  {
    "dsid": "801606", 
    "k_factor": 1.0,
    "generator_filter_efficiency": 1.0,
    "cross_section": 1.0E-06
  },
  {
    "dsid": "801607", 
    "k_factor": 1.0,
    "generator_filter_efficiency": 1.0,
    "cross_section": 1.0E-06
  },
  {
    "dsid": "801608", 
    "k_factor": 1.0,
    "generator_filter_efficiency": 1.0,
    "cross_section": 1.0E-06
  },
  {
    "dsid": "801609", 
    "k_factor": 1.0,
    "generator_filter_efficiency": 1.0,
    "cross_section": 1.0E-06
  },
  {
    "dsid": "801610", 
    "k_factor": 1.0,
    "generator_filter_efficiency": 1.0,
    "cross_section": 1.0E-06
  },
  {
    "dsid": "801611", 
    "k_factor": 1.0,
    "generator_filter_efficiency": 1.0,
    "cross_section": 1.0E-06
  },
  {
    "dsid": "801612", 
    "k_factor": 1.0,
    "generator_filter_efficiency": 1.0,
    "cross_section": 1.0E-06
  },
  {
    "dsid": "801613", 
    "k_factor": 1.0,
    "generator_filter_efficiency": 1.0,
    "cross_section": 1.0E-06
  },
  {
    "dsid": "801614", 
    "k_factor": 1.0,
    "generator_filter_efficiency": 1.0,
    "cross_section": 1.0E-06
  },
  {
    "dsid": "801615", 
    "k_factor": 1.0,
    "generator_filter_efficiency": 1.0,
    "cross_section": 1.0E-06
  },
  {
    "dsid": "801616", 
    "k_factor": 1.0,
    "generator_filter_efficiency": 1.0,
    "cross_section": 1.0E-06
  },
  {
    "dsid": "801617", 
    "k_factor": 1.0,
    "generator_filter_efficiency": 1.0,
    "cross_section": 1.0E-06
  },
  {
    "dsid": "801618", 
    "k_factor": 1.0,
    "generator_filter_efficiency": 1.0,
    "cross_section": 1.0E-06
  },
  {
    "dsid": "801619", 
    "k_factor": 1.0,
    "generator_filter_efficiency": 1.0,
    "cross_section": 1.0E-06
  },
  {
    "dsid": "801620", 
    "k_factor": 1.0,
    "generator_filter_efficiency": 1.0,
    "cross_section": 1.0E-06
  },
  {
    "dsid": "801621", 
    "k_factor": 1.0,
    "generator_filter_efficiency": 1.0,
    "cross_section": 1.0E-06
  },
  {
    "dsid": "801622", 
    "k_factor": 1.0,
    "generator_filter_efficiency": 1.0,
    "cross_section": 1.0E-06
  },
  {
    "dsid": "801623", 
    "k_factor": 1.0,
    "generator_filter_efficiency": 1.0,
    "cross_section": 1.0E-06
  },
  {
    "dsid": "801624", 
    "k_factor": 1.0,
    "generator_filter_efficiency": 1.0,
    "cross_section": 1.0E-06
  },
  {
    "dsid": "801625", 
    "k_factor": 1.0,
    "generator_filter_efficiency": 1.0,
    "cross_section": 1.0E-06
  },
  {
    "dsid": "801626", 
    "k_factor": 1.0,
    "generator_filter_efficiency": 1.0,
    "cross_section": 1.0E-06
  },
  {
    "dsid": "801627", 
    "k_factor": 1.0,
    "generator_filter_efficiency": 1.0,
    "cross_section": 1.0E-06
  },
  {
    "dsid": "801628", 
    "k_factor": 1.0,
    "generator_filter_efficiency": 1.0,
    "cross_section": 1.0E-06
  },
  {
    "dsid": "801629", 
    "k_factor": 1.0,
    "generator_filter_efficiency": 1.0,
    "cross_section": 1.0E-06
  },
  {
    "dsid": "801630", 
    "k_factor": 1.0,
    "generator_filter_efficiency": 1.0,
    "cross_section": 1.0E-06
  },
  {
    "dsid": "801631", 
    "k_factor": 1.0,
    "generator_filter_efficiency": 1.0,
    "cross_section": 1.0E-06
  },
  {
    "dsid": "801632", 
    "k_factor": 1.0,
    "generator_filter_efficiency": 1.0,
    "cross_section": 1.0E-06
  },
  {
    "dsid": "801633", 
    "k_factor": 1.0,
    "generator_filter_efficiency": 1.0,
    "cross_section": 1.0E-06
  },
  {
    "dsid": "801634", 
    "k_factor": 1.0,
    "generator_filter_efficiency": 1.0,
    "cross_section": 1.0E-06
  },
  {
    "dsid": "801635", 
    "k_factor": 1.0,
    "generator_filter_efficiency": 1.0,
    "cross_section": 1.0E-06
  },
  {
    "dsid": "801636", 
    "k_factor": 1.0,
    "generator_filter_efficiency": 1.0,
    "cross_section": 1.0E-06
  },
  {
    "dsid": "801637", 
    "k_factor": 1.0,
    "generator_filter_efficiency": 1.0,
    "cross_section": 1.0E-06
  },
  {
    "dsid": "801638", 
    "k_factor": 1.0,
    "generator_filter_efficiency": 1.0,
    "cross_section": 1.0E-06
  },
  {
    "dsid": "801639", 
    "k_factor": 1.0,
    "generator_filter_efficiency": 1.0,
    "cross_section": 1.0E-06
  },
  {
    "dsid": "801640", 
    "k_factor": 1.0,
    "generator_filter_efficiency": 1.0,
    "cross_section": 1.0E-06
  },
  {
    "dsid": "801641", 
    "k_factor": 1.0,
    "generator_filter_efficiency": 1.0,
    "cross_section": 1.0E-06
  },
  {
    "dsid": "801642", 
    "k_factor": 1.0,
    "generator_filter_efficiency": 1.0,
    "cross_section": 1.0E-06
  },
  {
    "dsid": "801643", 
    "k_factor": 1.0,
    "generator_filter_efficiency": 1.0,
    "cross_section": 1.0E-06
  },
  {
    "dsid": "801644", 
    "k_factor": 1.0,
    "generator_filter_efficiency": 1.0,
    "cross_section": 1.0E-06
  },
  {
    "dsid": "801645", 
    "k_factor": 1.0,
    "generator_filter_efficiency": 1.0,
    "cross_section": 1.0E-06
  },
  {
    "dsid": "801646", 
    "k_factor": 1.0,
    "generator_filter_efficiency": 1.0,
    "cross_section": 1.0E-06
  },
  {
    "dsid": "801647", 
    "k_factor": 1.0,
    "generator_filter_efficiency": 1.0,
    "cross_section": 1.0E-06
  },
  {
    "dsid": "801648", 
    "k_factor": 1.0,
    "generator_filter_efficiency": 1.0,
    "cross_section": 1.0E-06
  },
  {
    "dsid": "801888", 
    "k_factor": 1.0,
    "generator_filter_efficiency": 1.0,
    "cross_section": 1.0E-06
  },
  {
    "dsid": "801889", 
    "k_factor": 1.0,
    "generator_filter_efficiency": 1.0,
    "cross_section": 1.0E-06
  },
  {
    "dsid": "801890", 
    "k_factor": 1.0,
    "generator_filter_efficiency": 1.0,
    "cross_section": 1.0E-06
  },
  {
    "dsid": "801891", 
    "k_factor": 1.0,
    "generator_filter_efficiency": 1.0,
    "cross_section": 1.0E-06
  },
  {
    "dsid": "801892", 
    "k_factor": 1.0,
    "generator_filter_efficiency": 1.0,
    "cross_section": 1.0E-06
  },
  {
    "dsid": "801893", 
    "k_factor": 1.0,
    "generator_filter_efficiency": 1.0,
    "cross_section": 1.0E-06
  },
  {
    "dsid": "801894", 
    "k_factor": 1.0,
    "generator_filter_efficiency": 1.0,
    "cross_section": 1.0E-06
  },
  {
    "dsid": "801895", 
    "k_factor": 1.0,
    "generator_filter_efficiency": 1.0,
    "cross_section": 1.0E-06
  },
  {
    "dsid": "801896", 
    "k_factor": 1.0,
    "generator_filter_efficiency": 1.0,
    "cross_section": 1.0E-06
  },
  {
    "dsid": "801897", 
    "k_factor": 1.0,
    "generator_filter_efficiency": 1.0,
    "cross_section": 1.0E-06
  },
  {
    "dsid": "801898", 
    "k_factor": 1.0,
    "generator_filter_efficiency": 1.0,
    "cross_section": 1.0E-06
  },
  {
    "dsid": "801899", 
    "k_factor": 1.0,
    "generator_filter_efficiency": 1.0,
    "cross_section": 1.0E-06
  },
  {
    "dsid": "801900", 
    "k_factor": 1.0,
    "generator_filter_efficiency": 1.0,
    "cross_section": 1.0E-06
  },
  {
    "dsid": "801901", 
    "k_factor": 1.0,
    "generator_filter_efficiency": 1.0,
    "cross_section": 1.0E-06
  },
  {
    "dsid": "801902", 
    "k_factor": 1.0,
    "generator_filter_efficiency": 1.0,
    "cross_section": 1.0E-06
  },
  {
    "dsid": "801903", 
    "k_factor": 1.0,
    "generator_filter_efficiency": 1.0,
    "cross_section": 1.0E-06
  },
  {
    "dsid": "801904", 
    "k_factor": 1.0,
    "generator_filter_efficiency": 1.0,
    "cross_section": 1.0E-06
  },
  {
    "dsid": "801905", 
    "k_factor": 1.0,
    "generator_filter_efficiency": 1.0,
    "cross_section": 1.0E-06
  },
  {
    "dsid": "801906", 
    "k_factor": 1.0,
    "generator_filter_efficiency": 1.0,
    "cross_section": 1.0E-06
  },
  {
    "dsid": "801907", 
    "k_factor": 1.0,
    "generator_filter_efficiency": 1.0,
    "cross_section": 1.0E-06
  },
  {
    "dsid": "801908", 
    "k_factor": 1.0,
    "generator_filter_efficiency": 1.0,
    "cross_section": 1.0E-06
  },
  {
    "dsid": "801909", 
    "k_factor": 1.0,
    "generator_filter_efficiency": 1.0,
    "cross_section": 1.0E-06
  },
  {
    "dsid": "801910", 
    "k_factor": 1.0,
    "generator_filter_efficiency": 1.0,
    "cross_section": 1.0E-06
  },
  {
    "dsid": "801911", 
    "k_factor": 1.0,
    "generator_filter_efficiency": 1.0,
    "cross_section": 1.0E-06
  } 
]
