INFO : archiving source files
INFO : The build directory is /cvmfs/atlas.cern.ch/repo/sw/software/22.2/AnalysisBase/22.2.106/InstallArea
INFO : archiving source files
INFO : archiving InstallArea
INFO : gathering files under /afs/cern.ch/work/j/jcrosby/public/analysis/sh4b/grid/run.grid/./
INFO : checking sandbox
INFO : upload sandbox
INFO : submit user.jcrosby.20230419_mc_nosysts_mc20d.data17_13TeV.periodE_TREE.0.SH4b/
INFO : succeeded. new jediTaskID=33145020
