INFO : archiving source files
INFO : The build directory is /cvmfs/atlas.cern.ch/repo/sw/software/22.2/AnalysisBase/22.2.106/InstallArea
INFO : archiving source files
INFO : archiving InstallArea
INFO : gathering files under /afs/cern.ch/work/j/jcrosby/public/analysis/sh4b/grid/run.grid/./
INFO : checking sandbox
INFO : upload sandbox
INFO : submit user.jcrosby.20230417_mc_nosysts_mc20e.364712.test2_bkg_r13145/
INFO : succeeded. new jediTaskID=33108841
