user.dabattul.ntup_bkg_24022023.364702.Pythia8EvtGen_A14NNPDF23LO_jetjet_JZ2WithSW.e7142_s3681_r13145_p5511_TREE/user.dabattuluser.dabattul.32511589._000009.outputhh4b.root,
user.dabattul.ntup_bkg_24022023.364702.Pythia8EvtGen_A14NNPDF23LO_jetjet_JZ2WithSW.e7142_s3681_r13145_p5511_TREE/user.dabattuluser.dabattul.32511589._000007.outputhh4b.root,
user.dabattul.ntup_bkg_24022023.364702.Pythia8EvtGen_A14NNPDF23LO_jetjet_JZ2WithSW.e7142_s3681_r13145_p5511_TREE/user.dabattuluser.dabattul.32511589._000008.outputhh4b.root,
user.dabattul.ntup_bkg_24022023.364702.Pythia8EvtGen_A14NNPDF23LO_jetjet_JZ2WithSW.e7142_s3681_r13145_p5511_TREE/user.dabattuluser.dabattul.32511589._000006.outputhh4b.root,
user.dabattul.ntup_bkg_24022023.364702.Pythia8EvtGen_A14NNPDF23LO_jetjet_JZ2WithSW.e7142_s3681_r13145_p5511_TREE/user.dabattuluser.dabattul.32511589._000004.outputhh4b.root,
user.dabattul.ntup_bkg_24022023.364702.Pythia8EvtGen_A14NNPDF23LO_jetjet_JZ2WithSW.e7142_s3681_r13145_p5511_TREE/user.dabattuluser.dabattul.32511589._000005.outputhh4b.root,
user.dabattul.ntup_bkg_24022023.364702.Pythia8EvtGen_A14NNPDF23LO_jetjet_JZ2WithSW.e7142_s3681_r13145_p5511_TREE/user.dabattuluser.dabattul.32511589._000003.outputhh4b.root,
user.dabattul.ntup_bkg_24022023.364702.Pythia8EvtGen_A14NNPDF23LO_jetjet_JZ2WithSW.e7142_s3681_r13145_p5511_TREE/user.dabattuluser.dabattul.32511589._000002.outputhh4b.root,
user.dabattul.ntup_bkg_24022023.364702.Pythia8EvtGen_A14NNPDF23LO_jetjet_JZ2WithSW.e7142_s3681_r13145_p5511_TREE/user.dabattuluser.dabattul.32511589._000001.outputhh4b.root
